<|startoftext|>[K]Nieren, Aufbau/Funktion[A]Deine beiden Nieren sind lebenswichtige Organe. Die Hauptaufgabe der Nieren ist es, das Blut zu filtern und zu reinigen sowie die chemische Balance deines Körpers zu regulieren. Zu verstehen, wie deine Nieren arbeiten, kann dir helfen, sie gesund zu erhalten.

Deine Nieren sind bohnenförmige Organe, jede etwa von der Grösse deiner Faust. Sie befinden sich in der Nähe der Mitte deines Rückens genau unter dem Rippenbogen. Deine Nieren sind hoch entwickelte Abfallsammler. Jeden Tag reinigen die Nieren etwa 1500 Liter Blut. Dabei werden rund 1.5 Liter Abfallprodukte und Wasser aussortiert. Daraus entsteht Urin, der durch die sogenannten Harnleiter zur Blase fliesst. Deine Blase lagert den Urin so lange, bis du zur Toilette gehst.

Zudem sondern deine Nieren Substanzen wie Natrium, Phosphat und Kalium aus und geben diese dem Körper über das Blut wieder zurück. Auf diese Weise regulieren deine Nieren die Konzentration dieser Stoffe im Körper. Damit sind die Nieren lebenswichtig für die Regulierung des Wasser- und Salzhaushaltes und für die Entgiftung des Körpers.<|endoftext|><|startoftext|>[K]Nieren, Nierenfunktion[A]Dein ärztliches Behandlungsteam nennt die Arbeit, die deine Nieren leisten, die Nierenfunktion. Sind deine Nieren gesund, hast du 100 % Ihrer Nierenfunktion. <|endoftext|><|startoftext|>[K]Nierenerkrankung, Allgemeinwissen[A]Eine Nierenerkrankung, auch Niereninsuffizienz genannt, hat weitreichende Folgen für den ganzen Körper. Sie kann unter anderem zu Wasseransammlungen im Gewebe, Bluthochdruck, Störungen des Nervensystems, Blutarmut und Knochenabbau führen. Je weiter fortgeschritten die Niereninsuffizienz ist, desto gravierender die Beschwerden. Bei weitgehendem oder völligem Nierenversagen kann nur noch eine künstliche Blutreinigung (Dialyse) oder eine Nierentransplantation das Leben des Patienten retten.<|endoftext|><|startoftext|>[K]Nierenerkrankung, Diagnose[A]Dein Arzt erhebt in einem ausführlichen Gespräch zusammen mit dir deine Krankengeschichte, auch Anamnese, genannt. Unter anderem wird er nach vorbestehenden Nierenschäden, chronischen Erkrankungen, die Einnahme von Medikamenten sowie Nierenerkrankungen in der Familie fragen. Anschliessend erfolgt eine körperliche Untersuchung mit Messung des Blutdrucks und der Herzfrequenz. Zusätzlich kann es sein, dass dein Arzt eine Blut-, Urin- und eine Ultraschalluntersuchung durchführt. Manchmal ist auch die Entnahme einer Gewebeprobe aus der Niere (Nierenbiopsie) notwendig.<|endoftext|><|startoftext|>[K]Nierenerkrankung, Nierenversagen[A]Mediziner unterschieden zwei Formen der Niereninsuffizienz - je nachdem, wie rasch die Nierenfunktion nachlässt.

Die akute Niereninsuffizienz wird auch akute Nierenschwäche oder akutes Nierenversagen genannt. In diesem Fall erfolgt der die Abnahme der Nierenfunktion plötzlich, innerhalb von Stunden oder Tagen. Mögliche Ursachen sind zum Beispiel Verletzungen oder Operationen mit hohem Flüssigkeits- und Blutverlust, Entzündungen, Infektionen, Medikamente oder eine Blockade des Harnabflusses (etwa durch Nierensteine oder eine vergrößerte Prostata). Das zerstörte Nierengewebe kann sich bei frühzeitiger Diagnose und Behandlung oftmals wieder erholen. Ohne rasche Behandlung kann die akute Niereninsuffizienz aber tödlich enden.

Die der chronische Niereninsuffizienz, auch chronische Nierenschwäche oder chronisches Nierenversagen, verschlechtert sich die Nierenfunktion kontinuierlich über Monate oder Jahre. Der Grund für das schleichende Nierenversagen ist meist Diabetes mellitus (Zuckerkrankheit) oder Bluthochdruck (Hypertonie). Im Unterschied zum akuten Nierenversagen geht die chronische Nierenschwäche mit einem dauerhaften Verlust von funktionsfähigem Nierengewebe einher. Eine rechtzeitige und konsequente Behandlung kann aber das Fortschreiten der Niereninsuffizienz bremsen.<|endoftext|><|startoftext|>[K]Nierenerkrankung, Reversibilität[A]Wird ein akutes Nierenversagen rechtzeitig behandelt und ist der Patient nicht durch andere Vorerkrankungen sehr geschwächt, kann sich die Nierenfunktion auch wieder erholen. Nur in wenigen Fällen verschlechtert sich die Nierenfunktion im weiteren Verlauf wieder langsam.

Je eher eine chronische Niereninsuffizienz festgestellt und behandelt wird, desto besser sind die Erfolgsaussichten. Eine völlige Heilung ist jedoch meist nicht möglich – der Verlust an funktionsfähigem Nierengewebe lässt sich nicht rückgängig machen.<|endoftext|><|startoftext|>[K]Nierenerkrankung, Symptome[A]Welche Symptome Nierenversagen hervorruft, hängt zum einen davon ab, ob es sich um eine akute oder eine chronische Niereninsuffizienz handelt. Auch das Stadium der Erkrankung hat einen großen Einfluss darauf, welche Beschwerden auftreten und wie ausgeprägt sie sind.

Akutes Nierenversagen beginnt in vielen Fällen mit unspezifischen Symptomen wie zum Beispiel rascher Ermüdbarkeit, Konzentrationsstörungen und Übelkeit. Die Harnausscheidung geht zurück, was mit der Zeit zu Wassereinlagerungen im Gewebe, sogenannten Ödemen führt. Zuerst meist in den Beinen. Später dann auch in den Organen wie beispielsweise der Lunge, was Luftnot nach sich zieht.

Der Verlauf einer chronischen Nierenversagen hängt vor allem von der jeweiligen Grunderkrankung ab (wie Diabetes oder Bluthochdruck). Zu Begnn während die Nierenfunktion nur leicht eingeschränkt ist, merkt man meist nichts. Manche Betroffene klagen über uncharakteristische Beschwerden wie Leistungsschwäche, Müdigkeit oder häufiges Wasserlassen. Im weiteren Verlauf geht chronisches Nierenversagen oft mit folgenden Beschwerden einher:
- Bluthochdruck
- geringe Urinmengen 
- manchmal rot gefärbter Urin
- schäumender Urin beim Wasserlassen
- Flüssigkeitsansammlungen im Körper, vor allem an den Beinen und Augenlidern
- erhöhte Anfälligkeit für Infektionen
- Blutarmut (renale Anämie) und damit verbunden Müdigkeit, Schwäche, Konzentrationsprobleme, abnehmende körperliche Belastbarkeit sowie Blässe oder Café-au-lait-Färbung der Haut (schmutzig-gelbe Hautfärbung)
- Knochenschmerzen
- Muskelschmerzen
- Juckreiz und Brennen in den Beinen
- Übelkeit und Erbrechen
- Durchfall

Das Fortschreiten der chronischen Nierenschwäche schädigt nach und nach fast alle Organe und Organsysteme des Körpers – Mediziner sprechen hierbei vom urämischen Syndrom. So zeigen sich im Endstadium des Nierenversagens Symptome wie massive Luftnot, unregelmässiger Herzschlag, Benommenheit, Schläfrigkeit, Krämpfe und letztlich das Koma.<|endoftext|><|startoftext|>[K]Nierenerkrankung, Urämie[A]Wenn Ihre Nieren komplett ihre Arbeit einstellen, füllt sich Ihr Körper mit zusätzlichem Wasser und Abfallprodukten an. Diesen Zustand nennt man Urämie. Ihre Hände und Füsse können anschwellen. Sie werden sich müde und schwach fühlen, weil Ihr Körper gereinigtes Blut benötigt, um einwandfrei funktionieren zu können. Eine unbehandelte Nierenerkrankung im Endstadium kann zu Krämpfen oder Koma (Bewusstlosigkeit) führen und wird letztlich mit dem Tod enden. Wenn Ihre Nieren komplett aufhören zu arbeiten, werden Sie sich der Dialyse oder einer Nierentransplantation unterziehen müssen.<|endoftext|><|startoftext|>[K]Nierenerkrankung, Ursache[A]Die bekanntesten Ursachen einer Nierenerkrankung sind Diabetes und hoher Blutdruck. 
Nierenerkrankungen können jedoch auch vererbt oder angeboren sein. Ein Beispiel hierfür ist die polyzystische Nierenerkrankung, bei welcher viele Zysten in den Nieren wachsen. Diese können das Gewebe in den Nieren zersetzen, ihre Funktion reduzieren und so zu einem Nierenversagen führen.

Es gibt jedoch auch weitere Gründe für eine Nierenerkrankung:
- Gifte: Häufige Belastung durch beispielsweise Medikamente wie Schmerzmittel, falsche Ernährung, Umwelteinflüsse oder Informationen.
- Verletzungen/Operationen: Beispielsweise ein direkter und kraftvoller Stoss auf die Nieren oder ein hoher Flüssigkeits- und Blutverlust.
- Blockade des Harnabflusses, beispielsweise durch Nierensteine oder eine vergrösserte Prostata<|endoftext|><|startoftext|>[K]Therapie, Dialyse Allgemein, Allgemeinwissen[A]Grundsätzlich ist ein Wechsel zwischen den Dialysearten möglich. Die Bauchfelldialyse verhärtet sich jedoch mit der Zeit das Bauchfell - nach spätestens acht Jahren müssen Betroffene zur Hämodialyse wechseln. <|endoftext|><|startoftext|>[K]Therapie, Dialyse Allgemein, Alternativen[A]Wenn die Nierenfunktion so stark eingeschränkt ist, dass sich im Organismus Wasser sowie harnpflichtige Gift- und Abbaustoffe anhäufen, muss ein Nierenersatzverfahren die Reinigung deines Blutes übernehmen. Neben der Dialyse gibt es noch die Nierentransplantation. Ohne die Reinigung des körpereigenen Blutes kann man auf die Dauer eine tödliche innere Vergiftung (Urämie) nicht verhindern.<|endoftext|><|startoftext|>[K]Therapie, Dialyse Allgemein, Arbeitsfähigkeit[A]Bei der Berufswahl und/oder Berufsausübung sollten dialysepflichtige Patienten unter anderem körperlich schwere Tätigkeiten und grosse Entfernungen zwischen Wohnung, Arbeitsplatz und Dialysezentrum vermeiden. Geschäftsreisen sind möglich, wenn am oder in der Nähe des Zielorts eine Dialysebehandlung angeboten wird.<|endoftext|><|startoftext|>[K]Therapie, Dialyse Allgemein, Behandlungsdauer[A]Die gesamte Behandlungsdauer einer Dialyse hängt immer von der Art der Erkrankung ab. Bei einer akuten Nierenfunktionsstörung ist eine vorübergehende Blutwäsche erforderlich, bis sich die Nieren wieder erholt haben. Liegt die Ursache bei einer chronischen Niereninsuffizienz, müssen sich die Betroffenen auf eine lebenslängliche Abhängigkeit einer Dialyse oder einer Nierentransplantation einstellen.<|endoftext|><|startoftext|>[K]Therapie, Dialyse Allgemein, Beschwerdenmilderung[A]Die Dialyse an sich ist, bis auf das Installieren des Shunts, völlig schmerzfrei. Meist bessert sich das körperliche Befinden der Dialysepatienten recht schnell. Durch die Filterung des Blutes können sich beispielsweise Ödeme wieder zurückbilden, Atembeschwerden oder Bluthochdruck verbessern.<|endoftext|><|startoftext|>[K]Therapie, Dialyse Allgemein, Lebenserwartung[A]Die Lebensqualität von Dialysepatienten ist individuell sehr unterschiedlich und von der Grunderkrankung sowie dem Allgemeinzustand abhängig. Bei konsequenter Einhaltung der Ernährungs- und Hygieneregeln sowie einer konsequenten Einnahme erforderlicher Medikamente kann eine aktive Teilnahme am Alltag auch unter Dialyse sein.

Es gibt Menschen, die seit mehr als 40 Jahren dialysiert werden, andere warten seit Jahren auf eine Spenderniere. Jüngere Nierenkranke haben jedoch keine volle Lebenserwartung.<|endoftext|><|startoftext|>[K]Therapie, Dialyse Allgemein, Schwimmen[A]Ob Baden und Schwimmen möglich sind, hängt von der Art des Dialysezugangs (Shunt, Dialysekatheter, Peritonealdialyse-Katheter) ab, welcher eine mögliche Eintrittsquelle für Bakterien in den Körper darstellt.
- Hämodialyse-Patienten mit einem Dialysekatheter sollten diesen gut vor Nässe schützen. Hämodialyse-Patienten mit Shunt oder Gefässprothese können normal duschen, baden und schwimmen.
- Peritonealdialyse-Patienten sollten kein Vollbad nehmen, da hierdurch das Risiko für eine Infektion des PD-Katheters stark erhöht wird.<|endoftext|><|startoftext|>[K]Therapie, Dialyse Allgemein, Sexualität[A]Viele Patienten mit Nierenerkrankungen und unter Dialyse sind von Störungen der Sexualität betroffen. Vor allem Männer leiden unter Erektionsstörungen und haben einen verminderten Sexualtrieb. Zum Teil können Medikamente helfen. Nach einer Transplantation kann sich das Sexualleben normalisieren, aber es sind auch besondere Vorsichtsmaßnahmen nötig.<|endoftext|><|startoftext|>[K]Therapie, Dialyse Allgemein, Urlaub[A]Ja, auch Hämo- und Peritonealdialyse-Patienten können Ferien geniessen. Hämodialyse-Patienten müssen die Dialyse sicherstellen. Entweder gibt es ein Dialysezentrum in der Nähe des Ferienorts. Zudem gibt es spezielle Ferienangebote, die sich auf Dialysepatienten richten. Beispielweise Kreuzfahrtschiffe mit Dialysestationen.

Peritonealdialyse-Patienten sind in der Wahl des Ferienortes etwas freier. Für kurze Ferien mit dem Auto kann das Material selbst mitgeführt werden. Für längere Aufenthalte oder Reisen mit dem öffentlichen Verkehr kann das Material durch die Firma direkt an den Urlaubsort geliefert werden.<|endoftext|><|startoftext|>[K]Therapie, Dialyse Allgemein, Vertäglichkeit, Beschwerden, Komplikationen[A]Jede Dialyse eine erhebliche Belastung für den Körper. Nebenwirkungen sind zum Beispiel: Muskelkrämpfe, Blutdruckabfall, Übelkeit und Erbrechen, Kopfschmerzen oder allergische Reaktionen, Juckreiz.
Diese Nebenwirkungen sind durch Medikamente jedoch gut behandelbar. 

Je nach Art der Dialyse können weitere Komplikationen auftreten. Eine häufige Komplikation der Hämodialyse ist eine Infektion oder Verstopfung des Shunts. Die häufigste Komplikation bei der Peritonealdialyse ist eine Infektion des Bauchfells, eine sogenannte Peritonitis.<|endoftext|><|startoftext|>[K]Therapie, Dialyse Allgemein, Vorzeitiger Stopp[A]Ausgehend von der Ursache kann ein vorzeitiger Stopp einer Blutwäsche auf die Dauer eine tödliche innere Vergiftung (Urämie) zur Folge haben.<|endoftext|><|startoftext|>[K]Therapie, Eigenverantwortung[A]Bei der Entstehung gewisser Nierenerkrankungen (insbesondere der diabetischen Nierenerkrankung) kann ein "ungesunder Lebensstil" eine ursächliche Rolle spielen. Das Voranschreiten der meisten Nierenerkrankungen kann aber durch einen gesunden Lebensstil wohl günstig beeinflusst werden:
- Rauchen führt wie in allen Organen auch in den Nieren zu einer Schädigung der Blutgefässe und kann das Voranschreiten einer Nierenerkrankung beschleunigen. Mit dem Rauchen aufzuhören hat sowohl für die Nieren wie auch für den ganzen Körper sehr positive Folgen und ist deshalb allen Rauchern mit Nierenerkrankungen sehr zu empfehlen.
- Mit einer angepassten Ernährung kann der Verlauf einer Nierenerkrankung wahrscheinlich positiv beeinflusst werden.
- Übergewicht fördert möglicherweise das Voranschreiten vieler Nierenerkrankungen und es scheint daher sinnvoll, ein "normales" Körpergewicht anzustreben.
- Nehme nicht eigenständig Medikamente, insbesondere keine Schmerzmittel (ausser Aspirin und Paracetamol), die du frei verfügbar in der Apotheke bekommen, da diese „angegriffene Nieren“ einer zusätzlichen Gefahr aussetzen.
- Mit am Wichtigsten ist, dass du die Empfehlungen deines Arztes befolgst. Regelmässig die verschriebenen Tabletten einnimmst und Nebenwirkungen offen kommunizierst du damit Alternativen gefunden werden können statt „heimliche Nichteinnahme“.<|endoftext|><|startoftext|>[K]Therapie, Ernährung[A]Welche Ernährungsempfehlungen sinnvoll sind, hängt unter anderem vom Stadium der Nierenerkrankung wie auch von individuellen Faktoren ab. Es gibt keine festen Regeln, an die sich alle Patienten mit Nierenerkrankungen halten müssen und es ist wichtig, dass die Ernährung der individuellen Situation angepasst wird! Hierfür solltest du zwingend ein Beratungsgespräch mit speziell ausgebildeten Ernährungsberaterinnen in Anspruch nehmen.

Insgesamt gibt es ebenfalls kein "Patentrezept" wie viel man trinken soll. Patienten mit Nierenerkrankungen oder Herzschwäche sollten ihre Trinkmenge daher mit der Ärztin absprechen.<|endoftext|><|startoftext|>[K]Therapie, Hämodialyse, Allgemeinwissen[A]Die Hämodialyse oder Blutwäsche ist das gängigste Verfahren, um die Nierenfunktion bei Versagen der Organe zu ersetzen. Bei der Hämodialyse wird das Blut ausserhalb des Körpers gereinigt. Dabei wird es über eine Maschine durch einen Filter gepumpt, um dem Blut die Schadstoffe zu entziehen. Bei diesem Prozess verliert dein Blut Wasser und wichtige Blutsalze. Diese werden durch eine individuell abgestimmte Lösung ersetzt. Das gereinigte Blut wird deinem Organismus schliesslich wieder zugeführt.<|endoftext|><|startoftext|>[K]Therapie, Hämodialyse, Durchführung[A]Meist findet die Hämodialyse in Krankenhaus oder dem Dialysezentrum statt. In einigen Fällen können Nierenkranke die Hämodialyse aber auch zu Hause durchführen. Sie müssen bereit sein, sich eigenverantwortlich und selbstständig darum zu kümmern. Benötigt werden ein Bett oder eine Liege, ein Dialysegerät und eine Wasseraufbereitungsanlage (Osmosegerät). Die Geräte und Verbrauchsmaterialien stellt das betreuende Dialysezentrum.<|endoftext|><|startoftext|>[K]Therapie, Hämodialyse, Einschränkung[A]Die Hämodialyse belastet viele Erkrankte: Die medizinische Behandlung bestimmt ihren Wochenablauf. Sie fühlen sich anschließend müde und abgeschlagen. Jedoch kann mit einer Hämodialyse durchaus Urlaub gemacht und gereist werden. <|endoftext|><|startoftext|>[K]Therapie, Hämodialyse, Häufigkeit[A]Die Hämodialyse wird drei bis vier Mal pro Woche durchgeführt und dauert etwa vier bis fünf Stunden. Während dieser Zeit kann man auch lesen, essen oder am Computer arbeiten. Dennoch ist eine regelmässige Dialyse mit einem hohen Zeitaufwand verbunden, der manchmal mit einem normalen Berufsleben nicht vereinbar ist.<|endoftext|><|startoftext|>[K]Therapie, Hämodialyse, Katheter[A]Wenn sich keine geeigneten Gefässe für einen Shunt finden lassen oder ein unverzügliches Handeln erforderlich ist, stehen mehrere unterschiedliche Kathetersysteme für die Dialyse zur Verfügung. Der am häufigsten eingesetzte Katheter, der Shaldonkatheter, wird über die äussere Halsvene eingeführt. Aufgrund der grossen Infektionsanfälligkeit bei Kathetern wird der Shunt als Dauerlösung meist bevorzugt.<|endoftext|><|startoftext|>[K]Therapie, Hämodialyse, Shunt[A]Eine Hämodialyse setzt einen ausreichenden Blutfluss voraus. Dieser ist durch eine normale Vene nicht gegeben. Bei regelmässig erforderlicher Dialyse wird deshalb ein sogenannter Shunt, ein Kurzschluss zwischen Arterie und Vene, gelegt. In einer Operation wird meist eine Hautvene auf eine Armarterie genäht. Der hohe Druck der Arterie weitet die Vene innerhalb von Wochen bis Monaten dann so auf, dass sie jederzeit leicht punktiert werden kann und genügend Blut liefert. In den meisten Fällen kann ein Dialyseshunt über viele Jahre verwendet werden.<|endoftext|><|startoftext|>[K]Therapie, Hämodialyse, Vertäglichkeit, Beschwerden, Komplikationen[A]Eine häufige Komplikation der Hämodialyse ist eine Infektion oder Verstopfung des Shunts. Die Gefahr für Infektionen mit Bakterien ist sehr hoch, da der Gefässzugang (Shunt) bei jeder Dialyse mit jeweils zwei Kanülen punktiert werden muss. Darüber hinaus besteht bei einer Hämodialyse eine allgemein erhöhte Infektionsgefahr, da Blut in die Dialysemaschine hinein- und wieder zurückgeleitet wird. Um Infektionen mit Hepatitis B, Hepatitis C und HIV vorzubeugen, herrschen in den Dialysezentren strengste Hygienevorschriften für die Reinigung der Dialysegeräte.<|endoftext|><|startoftext|>[K]Therapie, Medikamentöse Behandlung[A]Die Therapie einer Niereninsuffizienz richtet sich nach der Art und Ursache der Erkrankung. Dabei wird meist neben anderen Behandlungen auch auf Medikamente zurückgegriffen wie beispielsweise harntreibende Medikamente (Diuretika), Antibiotika bei einer bakteriellen Entzündung oder die medikamentöse Behandlung von Bluthochdruck. Es im Normalfall nicht möglich eine Niereninsuffizienz ausschliesslich medikamentös zu behandeln, immer mehrere Faktoren berücksichtigt werden. <|endoftext|><|startoftext|>[K]Therapie, Nierenersatzverfahren[A]Wenn die Nierenfunktion so stark eingeschränkt ist, dass sich im Organismus Wasser sowie harnpflichtige Gift- und Abbaustoffe anhäufen, muss ein Nierenersatzverfahren die Reinigung deines Blutes übernehmen. Technische Methoden ersetzen oder unterstützen vorübergehend oder dauerhaft die Nierenfunktion, was als Blutwäsche oder Dialyse bezeichnet wird.

Bei der Dialyse unterscheidet man zwischen der Hämodialyse, welche anhand einer Maschine ausserhalb des Körper durchgeführt wird und der Peritonealdialyse, auch innere Blutwäsche genannt, welche im Brauchraum stattfindet.

Alternativ kann eine gesunde Niere transplantiert werden. Die operative Übertragung der Niere eines anderen Menschen wird als Nierentransplantation bezeichnet.<|endoftext|><|startoftext|>[K]Therapie, Nierentransplantation[A]Wenn deine Nieren komplett aufhören zu arbeiten, wirst du dich einer dauerhaften Dialyse oder einer Nierentransplantation unterziehen müssen. Mehr als die Hälfte aller betroffenen Patienten eignet sich für eine Nierentransplantation. Eine gespendete Niere kann von einem anonymen kurzverstorbenen Spender kommen oder von einer lebenden, meist einer verwandten Person. Die Niere muss gut zu deinem Körper passen, damit dein Immunsystem sie nicht abstösst. Dein Immunsystem schützt dich vor Krankheiten in dem es alles bekämpft, was es nicht als Teil deines Körpers erkennt. Deshalb wird dein Immunsystem eine Niere, die ihm als fremd erscheint, attackieren. Spezielle Medikamente können helfen, dein Immunsystem zu überlisten, sodass es die transplantierte Niere nicht abstösst. Die Spenderniere übernimmt dann, wie eine gesunde eigene Niere, die Blutreinigung. <|endoftext|><|startoftext|>[K]Therapie, Peritonealdialyse, Allgemeinwissen[A]Bei der Peritonealdialyse dient das Bauchfell, das den Bauchinnenraum auskleidet, als Filter. In einer kleinen Operation wird ein dünner, weicher Kunststoffschlauch in den Bauchraum eingelegt. Über diesen Schlauch werden Flüssigkeiten ein und ausgelassen, wodurch eine Entgiftung und Entwässerung stattfindet.<|endoftext|><|startoftext|>[K]Therapie, Peritonealdialyse, Durchführung[A]Da das Bauchfell, lateinisch Peritoneum, von Natur aus mit kleinen Poren für den Stoffaustausch durchsetzt ist, kann man es als Filtermembran verwenden. Dazu lässt man eine Lösung über einen Schlauch in die Bauchhöhle einlaufen, die dort vier bis acht Stunden verbleibt. Anschließend wird das Dialysat, das nun mit Schadstoffen und überschüssigen Salzen angereicht ist, wieder abgelassen.<|endoftext|><|startoftext|>[K]Therapie, Peritonealdialyse, Einschränkung[A]Die Bauchfelldialyse  nimmt im Alltag einige Zeit in Anspruch. Folgende Nachteile existieren:
- tägliche Dialyse
- Selbstdisziplin notwendig
- manuelles Geschick erforderlich
- sachgerechte Desinfektion von Händen, Unterarmen und Tragen eines Mundschutzes bei jedem Beutelwechsel
- Gefahr einer Bauchfellentzündung
- manchmal keine endgültige Lösung, da durch Veränderungen des Bauchfells dennoch zur Hämodialyse gewechselt werden muss
- geeigneter Stauraum in Wohnung oder Haus für Dialyseflüssigkeit nötig<|endoftext|><|startoftext|>[K]Therapie, Peritonealdialyse, Häufigkeit[A]Bei der Bauchfelldialyse lässt man eine Lösung über einen Schlauch in die Bauchhöhle einlaufen, die dort vier bis acht Stunden verbleibt. Anschliessend muss die Lösung mit Schadstoffen und überschüssigen Salzen wieder abgelassen. Dieser Vorgang und der damit verbundene Wechsel der Spülflüssigkeit werden vier- bis fünfmal am Tag durchgeführt und dauern etwa je eine halbe Stunde.<|endoftext|><|startoftext|>[K]Therapie, Peritonealdialyse, Vertäglichkeit, Beschwerden, Komplikationen[A]Die Bauchfelldialyse ähnelt der Funktion der Niere, sie entwässert den Körper schonender und kontinuierlich. Deshalb sind die Nebenwirkungen und Risiken bei der Peritonealdialyse geringer, wenn die entsprechenden Hygienemaßnahmen eingehalten werden. Die häufigste Komplikation bei der Peritonealdialyse ist eine Infektion des Bauchfells, eine sogenannte Peritonitis. Dabei gelangen Bakterien über den Katheter in die Bauchhöhle. Dies kann sich zu einem lebensbedrohlichen Zustand entwickeln, ist aber bei rechtzeitiger Gabe von Antibiotika meist gut behandelbar.<|endoftext|><|startoftext|>[K]Nierenerkrankung, Symptome, Selbstdiagnose[A]Frühe Zeichen gewisser Nierenerkrankungen können geschwollene Füsse, Beine und Augenlider oder Bluthochdruck sein. Bei vielen Patienten treten aber Beschwerden erst auf, wenn ein Nierenleiden weit fortgeschritten ist. Diese Beschwerden umfassen Zeichen der Harnvergiftung ("Urämie") wie Müdigkeit, Konzentrationsschwäche und Leistungsminderung, Appetitlosigkeit und Übelkeit. Daneben kann es durch die eingeschränkte Salz- und Wasserausscheidung zu Wassereinlagerungen (Ödemen) in den Beinen und zu Atemnot infolge von Wasseransammlung in den Lungen kommen. Sollte solche Symptome bei dir auftreten, solltest du sofort deinen Arzt aufsuchen, um eine frühzeitige Intervention zu ermöglichen.<|endoftext|>