<|startoftext|>[KEY]Nieren, Aufbau/Funktion[ANSWER]Ihre beiden Nieren sind lebenswichtige Organe. Die Hauptaufgabe der Nieren ist es, das Blut zu filtern und zu reinigen und das chemische Gleichgewicht Ihres Körpers zu regulieren. Zu verstehen, wie Ihre Nieren funktionieren, kann Ihnen helfen, sie gesund zu halten.

Ihre Nieren sind bohnenförmige Organe, jedes etwa so groß wie Ihre Faust. Sie befinden sich in der Nähe der Rückenmitte, direkt unterhalb des Brustkorbs. Ihre Nieren sind sehr anspruchsvolle Abfallsammler. Täglich reinigen die Nieren etwa 1.500 Liter Blut. Dabei werden etwa 1,5 Liter Abfall und Wasser aussortiert. Dabei entsteht Urin, der durch die Harnleiter in die Blase fließt. Ihre Blase speichert den Urin, bis Sie auf die Toilette gehen.

Ihre Nieren scheiden auch Stoffe wie Natrium, Phosphat und Kalium aus und geben sie über den Blutkreislauf an den Körper zurück. Auf diese Weise regulieren Ihre Nieren die Konzentration dieser Stoffe in Ihrem Körper. Die Nieren sind daher für die Regulierung des Wasser- und Salzhaushalts und für die Entgiftung des Körpers unerlässlich.<|endoftext|><|startoftext|>[KEY]Nieren, Nierenfunktion[ANSWER]Ihr medizinisches Team bezeichnet die von Ihren Nieren geleistete Arbeit als Nierenfunktion. Wenn Ihre Nieren gesund sind, haben Sie eine 100%ige Nierenfunktion. <|endoftext|><|startoftext|>[KEY]Nierenerkrankung, Allgemeinwissen[ANSWER]Eine Nierenerkrankung, auch bekannt als Nierenversagen, hat schwerwiegende Folgen für den gesamten Körper. Es kann zu Wassereinlagerungen im Gewebe, Bluthochdruck, Störungen des Nervensystems, Anämie und Knochenschwund führen. Je weiter das Nierenversagen fortgeschritten ist, desto stärker sind die Symptome. Bei ausgedehntem oder vollständigem Nierenversagen kann nur eine künstliche Blutreinigung (Dialyse) oder eine Nierentransplantation das Leben des Patienten retten.<|endoftext|><|startoftext|>[KEY]Nierenerkrankung, Diagnose[ANSWER]Bei einem ausführlichen Beratungsgespräch wird Ihr Arzt eine detaillierte Anamnese erheben. Er wird Fragen zu früheren Nierenschäden, chronischen Erkrankungen, eingenommenen Medikamenten und Nierenerkrankungen in der Familie stellen. Es folgt eine körperliche Untersuchung mit Blutdruck- und Herzfrequenzmessung. Darüber hinaus kann Ihr Arzt Blut- und Urinuntersuchungen sowie einen Ultraschall durchführen. Manchmal ist es auch notwendig, eine Gewebeprobe aus der Niere zu entnehmen (Nierenbiopsie).<|endoftext|><|startoftext|>[KEY]Nierenerkrankung, Nierenversagen[ANSWER]Ärzte unterscheiden zwischen zwei Formen des Nierenversagens, je nachdem, wie schnell die Nierenfunktion nachlässt.

Das akute Nierenversagen wird auch als akutes Nierenversagen oder akute Niereninsuffizienz bezeichnet. In diesem Fall tritt der Rückgang der Nierenfunktion plötzlich auf, innerhalb von Stunden oder Tagen. Mögliche Ursachen sind eine Verletzung oder eine Operation, die zu einem großen Flüssigkeits- und Blutverlust führt, eine Entzündung, eine Infektion, Medikamente oder eine Blockade des Urinflusses (z. B. Nierensteine oder eine vergrößerte Prostata). Zerstörtes Nierengewebe kann sich oft erholen, wenn es rechtzeitig diagnostiziert und behandelt wird. Ohne sofortige Behandlung kann das akute Nierenversagen jedoch tödlich sein.

Die chronische Nierenerkrankung, auch bekannt als chronische Nierenschwäche oder chronisches Nierenversagen, ist ein Zustand, bei dem sich die Nierenfunktion über Monate oder Jahre stetig verschlechtert. Die Ursache für ein fortschreitendes Nierenversagen ist meist Diabetes mellitus (Zuckerkrankheit) oder Bluthochdruck (Hypertonie). Im Gegensatz zum akuten Nierenversagen ist das chronische Nierenversagen mit einem dauerhaften Verlust von funktionellem Nierengewebe verbunden. Eine konsequente und rechtzeitige Behandlung kann jedoch das Fortschreiten der Nierenerkrankung verlangsamen.<|endoftext|><|startoftext|>[KEY]Nierenerkrankung, Reversibilität[ANSWER]Wenn das akute Nierenversagen rechtzeitig behandelt wird und der Patient nicht durch andere Vorerkrankungen geschwächt ist, kann sich die Nierenfunktion auch wieder erholen. Nur in wenigen Fällen verschlechtert sich die Nierenfunktion mit dem Fortschreiten der Krankheit langsam wieder.

Je früher eine chronische Nierenerkrankung diagnostiziert und behandelt wird, desto größer sind die Erfolgsaussichten. Eine vollständige Heilung ist jedoch meist nicht möglich - der Verlust von funktionellem Nierengewebe kann nicht rückgängig gemacht werden.<|endoftext|><|startoftext|>[KEY]Chronische Nierenerkrankung, Reversibilität[ANSWER]Je früher eine chronische Nierenerkrankung diagnostiziert und behandelt wird, desto größer ist die Chance auf Erfolg. Eine vollständige Heilung ist jedoch meist nicht möglich - der Verlust von funktionellem Nierengewebe kann nicht rückgängig gemacht werden.<|endoftext|><|startoftext|>[KEY]Akute Nierenerkrankung, Reversibilität[ANSWER]Wenn das akute Nierenversagen rechtzeitig behandelt wird und der Patient nicht durch andere Vorerkrankungen geschwächt ist, kann sich die Nierenfunktion auch wieder erholen. Nur in wenigen Fällen verschlechtert sich die Nierenfunktion mit dem Fortschreiten der Krankheit langsam wieder.<|endoftext|><|startoftext|>[KEY]Nierenerkrankung, Symptome[ANSWER]Die Symptome des Nierenversagens hängen davon ab, ob die Krankheit akut oder chronisch ist. Auch das Stadium der Erkrankung hat einen großen Einfluss auf das Auftreten und die Intensität der Symptome.

Eine akute Nierenerkrankung beginnt oft mit unspezifischen Symptomen wie schneller Ermüdung, Konzentrationsschwierigkeiten und Übelkeit. Die Urinausscheidung nimmt ab, was schließlich zu einer Flüssigkeitsansammlung im Gewebe, dem sogenannten Ödem, führt. Anfänglich tritt dies hauptsächlich in den Beinen auf. Später tritt sie auch in Organen wie der Lunge auf und führt zu Kurzatmigkeit.

Der Verlauf einer chronischen Nierenerkrankung hängt vor allem von der Grunderkrankung (z. B. Diabetes oder Bluthochdruck) ab. Am Anfang, wenn die Nierenfunktion nur geringfügig beeinträchtigt ist, wird meist nichts bemerkt. Manche Menschen klagen über ungewöhnliche Symptome wie Leistungsschwäche, Müdigkeit oder häufiges Wasserlassen. Mit dem Fortschreiten der Erkrankung wird die chronische Nierenerkrankung häufig von folgenden Symptomen begleitet:
- Bluthochdruck
- geringe Mengen an Urin 
- Urin, der manchmal rot gefärbt ist
- schaumiger Urin beim Wasserlassen
- Flüssigkeitsretention im Körper, insbesondere in den Beinen und Augenlidern
- erhöhte Anfälligkeit für Infektionen
- Anämie (Nierenanämie) und damit verbundene Müdigkeit, Schwäche, Konzentrationsschwierigkeiten, verminderte Belastbarkeit und Blässe oder Café-au-lait-Verfärbung der Haut (schmutziggelbe Verfärbung der Haut)
- Knochenschmerzen
- Muskelschmerz
- Juckreiz und Brennen in den Beinen
- Übelkeit und Erbrechen
- Diarrhöe<|endoftext|><|startoftext|>[KEY]Nierenerkrankung, Urämie[ANSWER]Wenn Ihre Nieren ihre Arbeit vollständig einstellen, füllt sich Ihr Körper mit zusätzlichem Wasser und Abfallstoffen. Dieser Zustand wird Urämie genannt. Ihre Hände und Füße können anschwellen. Sie werden sich müde und schwach fühlen, weil Ihr Körper gereinigtes Blut benötigt, um richtig zu funktionieren. Eine unbehandelte Nierenerkrankung im Endstadium kann zu Krampfanfällen oder Koma (Bewusstlosigkeit) und Tod führen. Wenn Ihre Nieren vollständig aufhören zu arbeiten, benötigen Sie eine Dialyse oder eine Nierentransplantation.<|endoftext|><|startoftext|>[KEY]Nierenerkrankung, Ursache[ANSWER]Die häufigsten Ursachen für Nierenerkrankungen sind Diabetes und Bluthochdruck. 
Nierenerkrankungen können aber auch erblich bedingt oder angeboren sein. Die polyzystische Nierenerkrankung zum Beispiel ist durch die Entwicklung zahlreicher Zysten in den Nieren gekennzeichnet. Diese Zysten können das Nierengewebe abbauen und seine Funktion einschränken, was zu Nierenversagen führen kann.

Es gibt jedoch noch andere Gründe für eine Nierenerkrankung:
- Toxine: häufige Einwirkung von z. B. Medikamenten wie Schmerzmitteln, schlechte Ernährung, Umweltfaktoren oder Informationen.
- Verletzungen/Operationen: Zum Beispiel ein direkter und schwerer Schlag auf die Nieren oder ein starker Verlust von Flüssigkeit und Blut.
- Blockierung des Urinflusses, zum Beispiel durch Nierensteine oder eine vergrößerte Prostata.<|endoftext|><|startoftext|>[KEY]Therapie, Dialyse Allgemein, Allgemeinwissen[ANSWER]Grundsätzlich ist es möglich, von einer Dialyseart zu einer anderen zu wechseln. Allerdings verhärtet die Peritonealdialyse mit der Zeit das Bauchfell - spätestens nach acht Jahren sollte man auf die Hämodialyse umsteigen.  <|endoftext|><|startoftext|>[KEY]Therapie, Dialyse Allgemein, Alternativen[ANSWER]Wenn die Nierenfunktion so stark beeinträchtigt ist, dass sich Giftstoffe sowie Wasser- und Urinabfälle im Körper ansammeln, muss ein Nierenersatzverfahren die Reinigung Ihres Blutes übernehmen. Neben der Dialyse gibt es auch die Nierentransplantation. Ohne die Reinigung des körpereigenen Blutes ist eine tödliche innere Vergiftung (Urämie) auf Dauer nicht zu vermeiden.<|endoftext|><|startoftext|>[KEY]Therapie, Dialyse Allgemein, Arbeitsfähigkeit[ANSWER]Bei der Berufswahl und/oder -ausübung sollten dialysepflichtige Patienten u. a. körperlich anstrengende Tätigkeiten und lange Wege zwischen Wohnung, Arbeitsplatz und Dialysezentrum vermeiden. Geschäftsreisen sind möglich, wenn am oder in der Nähe des Reiseziels eine Dialysebehandlung angeboten wird.<|endoftext|><|startoftext|>[KEY]Therapie, Dialyse Allgemein, Behandlungsdauer[ANSWER]Die Gesamtdauer der Dialysebehandlung ist immer abhängig von der Art der Erkrankung. Bei akutem Nierenversagen ist eine vorübergehende Blutwäsche notwendig, bis sich die Nieren erholt haben. Liegt die Ursache in einem chronischen Nierenversagen, müssen sich die Betroffenen darauf einstellen, lebenslang auf die Dialyse oder eine Nierentransplantation angewiesen zu sein.<|endoftext|><|startoftext|>[KEY]Therapie, Dialyse Allgemein, Beschwerdenmilderung[ANSWER]Die Dialyse selbst ist bis auf das Anlegen des Shunts völlig schmerzfrei. In den meisten Fällen verbessert sich der körperliche Zustand der Dialysepatienten recht schnell. Die Filterung des Blutes kann z. B. Ödeme reduzieren und Atemprobleme oder Bluthochdruck verbessern.<|endoftext|><|startoftext|>[KEY]Therapie, Dialyse Allgemein, Lebenserwartung[ANSWER]Die Lebensqualität von Dialysepatienten ist von Mensch zu Mensch sehr unterschiedlich und hängt von der Grunderkrankung und dem Allgemeinzustand ab. Bei ständiger Einhaltung der Ernährungs- und Hygieneregeln sowie der regelmäßigen Einnahme der notwendigen Medikamente ist eine aktive Teilnahme am täglichen Leben auch an der Dialyse möglich.

Manche Menschen sind schon seit über 40 Jahren an der Dialyse, andere warten seit Jahren auf eine Spenderniere. Junge Patienten mit Nierenproblemen haben jedoch keine volle Lebenserwartung.<|endoftext|><|startoftext|>[KEY]Therapie, Dialyse Allgemein, Schwimmen[ANSWER]Die Bade- und Schwimmfähigkeit ist abhängig von der Art des Dialysezugangs (Shunt, Dialysekatheter, Peritonealdialysekatheter), der eine mögliche Quelle für das Eindringen von Bakterien in den Körper darstellt.
- Hämodialysepatienten mit Dialysekathetern sollten diese vor Feuchtigkeit schützen. Hämodialysepatienten mit Shunts oder Gefäßprothesen können normal duschen, baden und schwimmen.
- Peritonealdialyse-Patienten sollten nicht voll gebadet werden, da dies das Risiko einer Infektion des PD-Katheters stark erhöht.<|endoftext|><|startoftext|>[KEY]Therapie, Dialyse Allgemein, Sexualität[ANSWER]Viele nierenkranke und dialysepflichtige Patienten sind von sexueller Dysfunktion betroffen. Vor allem Männer leiden unter erektiler Dysfunktion und verminderter Libido. Medikamente können zum Teil helfen. Nach einer Transplantation kann das Sexualleben normalisiert werden, aber es sind auch besondere Vorsichtsmaßnahmen erforderlich.<|endoftext|><|startoftext|>[KEY]Therapie, Dialyse Allgemein, Urlaub[ANSWER]Ja, auch Hämodialyse- und Peritonealdialyse-Patienten können Urlaub machen. Hämodialysepatienten müssen eine Dialyse durchführen. Entweder befindet sich in der Nähe des Urlaubsortes ein Dialysezentrum. Auch für Dialysepatienten gibt es spezielle Urlaubsangebote. Zum Beispiel Kreuzfahrtschiffe mit Dialyse-Stationen.

Peritonealdialyse-Patienten haben ein wenig mehr Freiheit bei der Wahl ihres Urlaubsziels. Bei kurzen Autofahrten kann das Gerät vom Patienten getragen werden. Bei längeren Urlauben oder Reisen mit öffentlichen Verkehrsmitteln können die Geräte von der Firma direkt an den Urlaubsort geliefert werden.<|endoftext|><|startoftext|>[KEY]Therapie, Dialyse Allgemein, Vertäglichkeit, Beschwerden, Komplikationen[ANSWER]Jede Dialyse ist eine schwere Belastung für den Körper. Zu den Nebenwirkungen gehören Muskelkrämpfe, niedriger Blutdruck, Übelkeit und Erbrechen, Kopfschmerzen oder allergische Reaktionen, Juckreiz.
Diese Nebenwirkungen sind jedoch leicht mit Medikamenten zu behandeln. 

Je nach Art der Dialyse können weitere Komplikationen auftreten. Eine häufige Komplikation der Hämodialyse ist eine Infektion oder Verstopfung des Shunts. Die häufigste Komplikation der Peritonealdialyse ist eine Infektion des Bauchfells, die sogenannte Peritonitis.<|endoftext|><|startoftext|>[KEY]Therapie, Dialyse Allgemein, Vorzeitiger Stopp[ANSWER]Ein vorzeitiger Abbruch der Blutwäsche kann je nach Ursache langfristig zu einer tödlichen inneren Vergiftung (Urämie) führen.<|endoftext|><|startoftext|>[KEY]Therapie, Eigenverantwortung[ANSWER]Ein "ungesunder Lebensstil" kann eine kausale Rolle bei der Entstehung einiger Nierenerkrankungen (einschließlich der diabetischen Nierenerkrankung) spielen. Der Verlauf der meisten Nierenerkrankungen kann jedoch durch einen gesunden Lebensstil positiv beeinflusst werden:
- Rauchen schädigt, wie bei allen Organen, die Blutgefäße in den Nieren und kann das Fortschreiten der Nierenerkrankung beschleunigen. Die Raucherentwöhnung hat sowohl für die Nieren als auch für den gesamten Körper sehr positive Folgen und ist daher für alle nierenkranken Raucher sehr empfehlenswert.
- Eine angemessene Ernährung kann wahrscheinlich einen positiven Einfluss auf den Verlauf der Nierenerkrankung haben.
- Übergewicht kann das Fortschreiten vieler Nierenerkrankungen begünstigen, daher erscheint es sinnvoll, ein "normales" Körpergewicht anzustreben.
- Nehmen Sie keine Medikamente auf eigene Faust ein, insbesondere keine Schmerzmittel (außer Aspirin und Paracetamol), die rezeptfrei in der Apotheke erhältlich sind, da sie die "geschädigten Nieren" zusätzlich gefährden.
- Eines der wichtigsten Dinge ist, dass Sie den Empfehlungen Ihres Arztes folgen. Nehmen Sie die verordneten Tabletten regelmäßig ein und kommunizieren Sie Nebenwirkungen offen, damit Alternativen gefunden werden können, anstatt sie "heimlich" nicht zu nehmen.<|endoftext|><|startoftext|>[KEY]Therapie, Ernährung[ANSWER]Geeignete Ernährungsempfehlungen hängen u. a. vom Stadium der Nierenerkrankung und individuellen Faktoren ab. Es gibt keine festen Regeln, die alle Patienten mit einer Nierenerkrankung befolgen müssen, und es ist wichtig, dass die Ernährung auf die individuelle Situation abgestimmt ist! Hierfür ist es unbedingt erforderlich, speziell geschulte Ernährungsberater zu konsultieren.

Im Allgemeinen gibt es kein "Patentrezept" zur Bestimmung der zu konsumierenden Getränkemenge. Patienten mit Nierenerkrankungen oder Herzinsuffizienz sollten daher die Trinkmenge mit ihrem Arzt besprechen.<|endoftext|><|startoftext|>[KEY]Therapie, Hämodialyse, Allgemeinwissen[ANSWER]Die Hämodialyse, auch Blutwäsche genannt, ist das häufigste Verfahren zum Ersatz der Nierenfunktion bei Organversagen. Bei der Hämodialyse wird das Blut außerhalb des Körpers gereinigt. Dabei wird das Blut von einer Maschine durch einen Filter gepumpt, um Schadstoffe aus dem Blut zu entfernen. Bei diesem Vorgang verliert Ihr Blut Wasser und wichtige Blutsalze. Diese werden durch eine kundenspezifische Lösung ersetzt. Das gereinigte Blut wird dann in Ihren Körper zurückgeführt.<|endoftext|><|startoftext|>[KEY]Therapie, Hämodialyse, Durchführung[ANSWER]Am häufigsten findet die Hämodialyse in einem Krankenhaus oder Dialysezentrum statt. In einigen Fällen können sich Nierenpatienten jedoch auch zu Hause einer Hämodialyse unterziehen. Sie müssen bereit sein, dies selbstständig und unabhängig zu tun. Sie benötigen ein Bett oder eine Liege, ein Dialysegerät und eine Wasseraufbereitungsanlage (Osmosegerät). Die Geräte und Verbrauchsmaterialien werden vom Dialysezentrum gestellt.<|endoftext|><|startoftext|>[KEY]Therapie, Hämodialyse, Einschränkung[ANSWER]Die Hämodialyse ist für viele Patienten eine Belastung: Die medizinische Behandlung bestimmt ihren Wochenablauf. Sie fühlen sich danach müde und erschöpft. Mit der Hämodialyse ist es jedoch möglich, in den Urlaub zu fahren und zu reisen. <|endoftext|><|startoftext|>[KEY]Therapie, Hämodialyse, Häufigkeit[ANSWER]Die Hämodialyse wird drei- bis viermal pro Woche durchgeführt und dauert etwa vier bis fünf Stunden. In dieser Zeit kann man auch lesen, essen oder am Computer arbeiten. Dennoch ist die regelmäßige Dialyse mit einem hohen zeitlichen Aufwand verbunden, der mit einem normalen Arbeitsleben manchmal nicht vereinbar ist.<|endoftext|><|startoftext|>[KEY]Therapie, Hämodialyse, Katheter[ANSWER]Wenn kein geeignetes Gefäß für einen Shunt gefunden werden kann oder wenn sofortiges Handeln erforderlich ist, stehen verschiedene Kathetersysteme für die Dialyse zur Verfügung. Der am häufigsten verwendete Katheter, der Shaldon-Katheter, wird durch die äußere Jugularvene eingeführt. Wegen der hohen Infektionsanfälligkeit von Kathetern wird der Shunt in der Regel als Dauerlösung bevorzugt.<|endoftext|><|startoftext|>[KEY]Therapie, Hämodialyse, Shunt[ANSWER]Die Hämodialyse erfordert einen ausreichenden Blutfluss. Dies ist bei einer normalen Vene nicht gegeben. Soll die Dialyse regelmäßig durchgeführt werden, wird ein Shunt eingesetzt, ein Kurzschluss zwischen Arterie und Vene. Bei einer Operation wird in der Regel eine Hautvene an eine Arterie im Arm angenäht. Durch den hohen Druck der Arterie weitet sich die Vene dann innerhalb weniger Wochen oder Monate, so dass sie jederzeit leicht punktiert werden kann und ausreichend Blut liefert. In den meisten Fällen kann ein Dialyse-Shunt viele Jahre lang verwendet werden.<|endoftext|><|startoftext|>[KEY]Therapie, Hämodialyse, Vertäglichkeit, Beschwerden, Komplikationen[ANSWER]Eine häufige Komplikation der Hämodialyse ist die Infektion oder Obstruktion des Shunts. Das Risiko einer bakteriellen Infektion ist sehr hoch, da der Gefäßzugang (Shunt) bei jeder Dialyse mit zwei Kanülen punktiert werden muss. Außerdem ist das Infektionsrisiko bei der Hämodialyse generell höher, da das Blut in die Dialysemaschine hinein- und herausgepumpt wird. Um eine Ansteckung mit Hepatitis B, Hepatitis C und HIV zu verhindern, gelten in Dialysezentren strenge Hygieneregeln für die Reinigung der Dialysegeräte.<|endoftext|><|startoftext|>[KEY]Therapie, Medikamentöse Behandlung[ANSWER]Die Behandlung des Nierenversagens hängt von der Art und Ursache der Erkrankung ab. Neben anderen Behandlungen werden in der Regel Medikamente eingesetzt, wie z. B. harntreibende Mittel, Antibiotika bei bakteriellen Entzündungen oder Medikamente zur Behandlung von Bluthochdruck. Eine ausschließliche medikamentöse Behandlung des Nierenversagens ist in der Regel nicht möglich, da immer mehrere Faktoren zu berücksichtigen sind. <|endoftext|><|startoftext|>[KEY]Therapie, Nierenersatzverfahren[ANSWER]Wenn die Nierenfunktion so stark beeinträchtigt ist, dass sich Giftstoffe sowie Wasser- und Urinabfälle im Körper ansammeln, muss ein Nierenersatzverfahren die Reinigung Ihres Blutes übernehmen. Technische Verfahren ersetzen oder unterstützen die Nierenfunktion vorübergehend oder dauerhaft, was als Blutwäsche oder Dialyse bezeichnet wird.

Die Dialyse wird in zwei Kategorien unterteilt: die Hämodialyse, die außerhalb des Körpers mit einer Maschine durchgeführt wird, und die Peritonealdialyse, auch innere Blutwäsche genannt, die auf der Station stattfindet.

Eine weitere Möglichkeit ist die Transplantation einer gesunden Niere. Die chirurgische Übertragung der Niere eines anderen Menschen wird als Nierentransplantation bezeichnet.<|endoftext|><|startoftext|>[KEY]Therapie, Nierentransplantation[ANSWER]Wenn Ihre Nieren vollständig aufhören zu arbeiten, benötigen Sie eine dauerhafte Dialyse oder eine Nierentransplantation. Mehr als die Hälfte aller Nierenpatienten kann eine Nierentransplantation erhalten. Eine gespendete Niere kann von einem anonymen, kurzlebigen Spender oder von einer lebenden Person, meist einem Verwandten, stammen. Die Niere muss gut zu Ihrem Körper passen, damit Ihr Immunsystem sie nicht abstößt. Ihr Immunsystem schützt Sie vor Krankheiten, indem es alles abwehrt, was es nicht als Teil Ihres Körpers erkennt. Aus diesem Grund wird Ihr Immunsystem eine Niere angreifen, die Ihnen fremd erscheint. Spezielle Medikamente können helfen, Ihr Immunsystem auszutricksen, damit es die transplantierte Niere nicht abstößt. Die Spenderniere übernimmt dann den Blutreinigungsprozess, wie eine eigene gesunde Niere. <|endoftext|><|startoftext|>[KEY]Therapie, Peritonealdialyse, Allgemeinwissen[ANSWER]Bei der Peritonealdialyse dient das Bauchfell (Peritoneum), das die Innenseite des Abdomens auskleidet, als Filter. In einem kleinen Eingriff wird ein dünner, flexibler Kunststoffschlauch in die Bauchhöhle eingeführt. Durch diese Röhre fließen Flüssigkeiten ein und aus, was zu einer Entgiftung und Entwässerung führt.<|endoftext|><|startoftext|>[KEY]Therapie, Peritonealdialyse, Durchführung[ANSWER]Da das Bauchfell von Natur aus mit kleinen Poren durchzogen ist, die den Austausch von Stoffen ermöglichen, kann es als Filtermembran verwendet werden. Dazu wird eine Lösung durch einen Schlauch in die Bauchhöhle eingeführt und dort für vier bis acht Stunden belassen. Die nun mit Schadstoffen und überschüssigen Salzen angereicherte Dialysierflüssigkeit wird anschließend wieder abgelassen.<|endoftext|><|startoftext|>[KEY]Therapie, Peritonealdialyse, Einschränkung[ANSWER]Die Peritonealdialyse nimmt Zeit im täglichen Leben in Anspruch. Es bestehen folgende Nachteile:
- tägliche Dialyse
- Selbstdisziplin erforderlich
- handwerkliches Geschick erforderlich
- ordnungsgemäße Desinfektion der Hände, Unterarme und Tragen eines Mundschutzes bei jedem Beutelwechsel
- Risiko einer Peritonitis
- manchmal keine endgültige Lösung, aufgrund von Veränderungen im Bauchfell, dennoch ist es notwendig, auf Hämodialyse umzustellen
- geeigneter Stauraum in der Wohnung oder im Haus für die Dialyseflüssigkeit ist notwendig<|endoftext|><|startoftext|>[KEY]Therapie, Peritonealdialyse, Häufigkeit[ANSWER]Bei der Peritonealdialyse wird eine Lösung durch einen Schlauch in die Bauchhöhle eingeführt und verbleibt dort für vier bis acht Stunden. Danach muss die schadstoff- und salzhaltige Lösung wieder abgelassen werden. Dieser Vorgang und der damit verbundene Wechsel der Spülflüssigkeit wird vier- bis fünfmal am Tag durchgeführt und dauert jeweils etwa eine halbe Stunde.<|endoftext|><|startoftext|>[KEY]Therapie, Peritonealdialyse, Vertäglichkeit, Beschwerden, Komplikationen[ANSWER]Die Peritonealdialyse ähnelt der Funktion der Niere, sie entwässert den Körper schonender und kontinuierlicher. Daher sind die Nebenwirkungen und Risiken der Peritonealdialyse geringer, wenn die richtigen Hygienemaßnahmen eingehalten werden. Die häufigste Komplikation der Peritonealdialyse ist eine Infektion des Bauchfells, die sogenannte Peritonitis. In diesem Fall gelangen die Bakterien durch den Katheter in die Bauchhöhle. Diese Krankheit kann tödlich enden, ist aber in der Regel leicht zu behandeln, wenn rechtzeitig Antibiotika verabreicht werden.<|endoftext|><|startoftext|>[KEY]Nierenerkrankung, Symptome, Selbstdiagnose[ANSWER]Frühe Anzeichen einiger Nierenerkrankungen können Schwellungen der Füße, Beine und Augenlider oder hoher Blutdruck sein. Viele Patienten zeigen jedoch keine Symptome, bis die Nierenerkrankung weit fortgeschritten ist. Zu diesen Symptomen gehören Anzeichen einer Harnvergiftung ("Urämie") wie Müdigkeit, Konzentrations- und Leistungsschwäche, Appetitlosigkeit und Übelkeit. Außerdem können Flüssigkeitsansammlungen (Ödeme) in den Beinen und Kurzatmigkeit durch Flüssigkeitsansammlungen in der Lunge aufgrund einer verminderten Salz- und Wasserausscheidung auftreten. Wenn eines dieser Symptome bei Ihnen auftritt, sollten Sie sofort Ihren Arzt aufsuchen, um frühzeitig einzugreifen.<|endoftext|><|startoftext|>[KEY]Therapie, Dialyse Allgemein, Häufigkeit[ANSWER]Je nach Art der Dialyse (Hämodialyse oder Peritonealdialyse) unterscheiden sich auch das Verfahren sowie die Häufigkeit und Dauer der Blutreinigung.<|endoftext|>