niere aufbauen funktionieren;Nieren, Aufbau/Funktion
niere;Nieren, Aufbau/Funktion
niere;Nieren, Aufbau/Funktion
niere;Nieren, Aufbau/Funktion
misst ärztin nierenfunktion;Nieren, Nierenfunktion
bedeuten nierenfunktion;Nieren, Nierenfunktion
niere betreffen nierenerkrankung;Nierenerkrankung, Allgemeinwissen
information liefern ultraschalluntersuchung;Nierenerkrankung, Diagnose
nierenbiopsie wozu durchführen;Nierenerkrankung, Diagnose
erkennen arzt nierenerkrankung;Nierenerkrankung, Diagnose
geschehen niere komplett versagen;Nierenerkrankung, Nierenversagen
gelten gesund;Nierenerkrankung, Reversibilität
niere normal;Nierenerkrankung, Reversibilität
nierenfunktion verbessern;Nierenerkrankung, Reversibilität
gesund;Nierenerkrankung, Reversibilität
niereninsuffizienz reversibel;Nierenerkrankung, Reversibilität
gesund;Nierenerkrankung, Reversibilität
nierenerkrankung erholen;Nierenerkrankung, Reversibilität
stehen chance erholen;Nierenerkrankung, Reversibilität
nierenkrankheit erholen;Nierenerkrankung, Reversibilität
nierenerkrankung erholen;Nierenerkrankung, Reversibilität
niere vollständig erholen;Nierenerkrankung, Reversibilität
nierenerkrankung heilen;Nierenerkrankung, Reversibilität
dauern reversibilität gesundheit;Nierenerkrankung, Reversibilität
gesund;Nierenerkrankung, Reversibilität
nierenerkrankung heilbar;Nierenerkrankung, Reversibilität
dauern gebesung;Nierenerkrankung, Reversibilität
gesund;Nierenerkrankung, Reversibilität
krankheit zurückbilden;Nierenerkrankung, Reversibilität
nierenerkrankung erholen;Nierenerkrankung, Reversibilität
chance erholen;Nierenerkrankung, Reversibilität
köper niereninsuffizienz erholen;Nierenerkrankung, Reversibilität
stehen chance gesund;Nierenerkrankung, Reversibilität
gesund;Nierenerkrankung, Reversibilität
chronisch nierenerkrankung erholen;Chronische Nierenerkrankung, Reversibilität
akut nierenerkrankung erholen;Akute Nierenerkrankung, Reversibilität
zusammenhang rückenschmerzen;Nierenerkrankung, Symptome
folge symptom nierenerkrankung;Nierenerkrankung, Symptome
woran erkennen nierenerkrankung;Nierenerkrankung, Symptome
urämie;Nierenerkrankung, Urämie
krankheit fahren nierenschädigung;Nierenerkrankung, Ursache
entstehung nierenerkrankungen;Nierenerkrankung, Ursache
versagen niere;Nierenerkrankung, Ursache
grund nierenerkrankung;Nierenerkrankung, Ursache
erklären wieso kranken;Nierenerkrankung, Ursache
teufel kranken;Nierenerkrankung, Ursache
nierenerkrankungen;Nierenerkrankung, Ursache
auslöser niereninsuffizenz;Nierenerkrankung, Ursache
falsch niereninsuffizienz;Nierenerkrankung, Ursache
washalb krankheit;Nierenerkrankung, Ursache
ursache nierenerkrankung;Nierenerkrankung, Ursache
folgen nierenerkrankung;Nierenerkrankung, Ursache
grund nierenerkrankung;Nierenerkrankung, Ursache
niereninsuffizienz ungesund lebensstandard;Nierenerkrankung, Ursache
grund kranken;Nierenerkrankung, Ursache
nierensuffizienz;Nierenerkrankung, Ursache
nierenerkrankung;Nierenerkrankung, Ursache
verursachen niereninsuffizienz;Nierenerkrankung, Ursache
ursache erkrankung;Nierenerkrankung, Ursache
grund kranken;Nierenerkrankung, Ursache
grund erkrankung;Nierenerkrankung, Ursache
tun krankheit;Nierenerkrankung, Ursache
nierenerkrankung bekommen;Nierenerkrankung, Ursache
aspekt begünstigen niereninsuffizienz;Nierenerkrankung, Ursache
genau bekommen nierenerkrankung;Nierenerkrankung, Ursache
wechsel peritonealdialyse hämodialyse;Therapie, Dialyse Allgemein, Allgemeinwissen
dialyse medikament umgehen;Therapie, Dialyse Allgemein, Alternativen
symptomatische behandlung dialyse;Therapie, Dialyse Allgemein, Alternativen
dialyse arbeiten;Therapie, Dialyse Allgemein, Arbeitsfähigkeit
peritonealdialyse arbeitsfähig;Therapie, Dialyse Allgemein, Arbeitsfähigkeit
dialyse irgendwann aufhören;Therapie, Dialyse Allgemein, Behandlungsdauer
dialyse;Therapie, Dialyse Allgemein, Behandlungsdauer
dauern dialysetherapie;Therapie, Dialyse Allgemein, Behandlungsdauer
hämodialyse verkürzen;Therapie, Dialyse Allgemein, Behandlungsdauer
behandlung dialyse abbrechen;Therapie, Dialyse Allgemein, Behandlungsdauer
müde dialyse starten;Therapie, Dialyse Allgemein, Beschwerdenmilderung
mittels dialyse;Therapie, Dialyse Allgemein, Beschwerdenmilderung
leben dialyse;Therapie, Dialyse Allgemein, Lebenserwartung
baden dusche katheter;Therapie, Dialyse Allgemein, Schwimmen
dialysepatientinnen baden schwimmen;Therapie, Dialyse Allgemein, Schwimmen
beeinflusst dialyse sexualität;Therapie, Dialyse Allgemein, Sexualität
beeinflusst peritonealdialyse sexualität;Therapie, Dialyse Allgemein, Sexualität
ferien fahren dialyse brauche;Therapie, Dialyse Allgemein, Urlaub
dialyse therapie urlaub;Therapie, Dialyse Allgemein, Urlaub
dialysepatienten ferien;Therapie, Dialyse Allgemein, Urlaub
verträglichkeit dialyse;Therapie, Dialyse Allgemein, Vertäglichkeit, Beschwerden, Komplikationen
komplikation treten dialyse;Therapie, Dialyse Allgemein, Vertäglichkeit, Beschwerden, Komplikationen
passieren dialyse aufhören;Therapie, Dialyse Allgemein, Vorzeitiger Stopp
urämie sinken;Therapie, Eigenverantwortung
patient selber;Therapie, Eigenverantwortung
nierenerkrankung;Therapie, Eigenverantwortung
nierenerkrankung essen trinken;Therapie, Ernährung
peritonealdialyse ernähren;Therapie, Ernährung
diät helfen;Therapie, Ernährung
ernährung verbessern;Therapie, Ernährung
ernährung patient nierenerkrankungen;Therapie, Ernährung
trinken niere gesund;Therapie, Ernährung
dialysepatienten trinken;Therapie, Ernährung
hämodialyse blutdialyse;Therapie, Hämodialyse, Allgemeinwissen
funktionieren hämodialyse haus;Therapie, Hämodialyse, Durchführung
sport betreiben;Therapie, Hämodialyse, Einschränkung
hämodialyse;Therapie, Hämodialyse, Häufigkeit
behandlung benötigen hämodialyse;Therapie, Hämodialyse, Häufigkeit
hämodialyse;Therapie, Hämodialyse, Häufigkeit
hämodialyse;Therapie, Hämodialyse, Häufigkeit
hämodialyse durchführen;Therapie, Hämodialyse, Häufigkeit
hämodialyse;Therapie, Hämodialyse, Häufigkeit
funktionieren künstliche niere;Therapie, Hämodialyse, Häufigkeit
blut monat reinigen;Therapie, Hämodialyse, Häufigkeit
hämodialyse regelmässig durchführen;Therapie, Hämodialyse, Häufigkeit
zeitlich zyklus hämodialyse durchführen;Therapie, Hämodialyse, Häufigkeit
baden dusche hd-katheter;Therapie, Hämodialyse, Katheter
pflegen shunt;Therapie, Hämodialyse, Shunt
verhalten shunt;Therapie, Hämodialyse, Shunt
shunt gefahr nebenwirkung;Therapie, Hämodialyse, Shunt
wieso shunt punktion abdrücken;Therapie, Hämodialyse, Shunt
komplikation treten shuntpunktion;Therapie, Hämodialyse, Vertäglichkeit, Beschwerden, Komplikationen
schmerz hämodialyse häufig;Therapie, Hämodialyse, Vertäglichkeit, Beschwerden, Komplikationen
woher juckreiz;Therapie, Hämodialyse, Vertäglichkeit, Beschwerden, Komplikationen
wieso schmerz schulter;Therapie, Hämodialyse, Vertäglichkeit, Beschwerden, Komplikationen
nierenersatzverfahren;Therapie, Nierenersatzverfahren
behandlung fortgeschritten nierenversagen;Therapie, Nierenersatzverfahren
nierenersatzverfahren;Therapie, Nierenersatzverfahren
planen nierenersatzverfahren rechtzeitig;Therapie, Nierenersatzverfahren
nierenersatzverfahren beginnen;Therapie, Nierenersatzverfahren
ablauf transplantation liste spender;Therapie, Nierentransplantation
nierentransplantation;Therapie, Nierentransplantation
peritonealdialyse;Therapie, Peritonealdialyse, Allgemeinwissen
materialmenge peritonealdialyse;Therapie, Peritonealdialyse, Durchführung
funktionieren lagerung peritonealdialyse;Therapie, Peritonealdialyse, Durchführung
funktionieren lieferung peritonealdialyse;Therapie, Peritonealdialyse, Durchführung
peritonealdialyse nacht;Therapie, Peritonealdialyse, Durchführung
tagesablauf peritonealdialyse wechsel;Therapie, Peritonealdialyse, Durchführung
eigenverantwortung peritonealdialyse;Therapie, Peritonealdialyse, Durchführung
kontrolle zentrum arzt peritonealdialyse;Therapie, Peritonealdialyse, Durchführung
auswahlmöglichkeit baxter fresenius apd;Therapie, Peritonealdialyse, Durchführung
peritonealdialyse operation vorgang dauer;Therapie, Peritonealdialyse, Durchführung
abfall peritonealdialyse entsorgen;Therapie, Peritonealdialyse, Durchführung
bezahlen entsorgung abfall;Therapie, Peritonealdialyse, Durchführung
peritonealdialyse urlaub;Therapie, Peritonealdialyse, Einschränkung
häufig finden peritonealdialyse;Therapie, Peritonealdialyse, Häufigkeit
zeitaufwand peritonealdialyse;Therapie, Peritonealdialyse, Häufigkeit
schmerzt;Therapie, Peritonealdialyse, Häufigkeit
sitzung nötigen gesund bleiben;Therapie, Peritonealdialyse, Häufigkeit
zeitlich abstand peritonealdialyse;Therapie, Peritonealdialyse, Häufigkeit
bauchfelldialyse;Therapie, Peritonealdialyse, Häufigkeit
genau geschehen;Therapie, Peritonealdialyse, Häufigkeit
häufig peritonealdialyse;Therapie, Peritonealdialyse, Häufigkeit
dauern bauchfelldialyse;Therapie, Peritonealdialyse, Häufigkeit
woche kosten;Therapie, Peritonealdialyse, Häufigkeit
verträglichkeit peritonealdialyse;Therapie, Peritonealdialyse, Vertäglichkeit, Beschwerden, Komplikationen
komplikation peritonealdialyse;Therapie, Peritonealdialyse, Vertäglichkeit, Beschwerden, Komplikationen
bauchfellentzündung entstehen;Therapie, Peritonealdialyse, Vertäglichkeit, Beschwerden, Komplikationen
merke nierenkrank;Nierenerkrankung, Symptome, Selbstdiagnose
merke nierenerkrankung symptom;Nierenerkrankung, Symptome, Selbstdiagnose
merken kranken;Nierenerkrankung, Symptome, Selbstdiagnose
häufig dialyse;Therapie, Dialyse Allgemein, Häufigkeit
dialyse;Therapie, Dialyse Allgemein, Häufigkeit
häufig dialyse;Therapie, Dialyse Allgemein, Häufigkeit
dialyse dauern;Therapie, Dialyse Allgemein, Häufigkeit
dialyse erfolgreich anwenden;Therapie, Dialyse Allgemein, Häufigkeit
blutreinigung;Therapie, Dialyse Allgemein, Häufigkeit
dialyse gesund bleiben;Therapie, Dialyse Allgemein, Häufigkeit
häufig dialysebehandlung stattfinden;Therapie, Dialyse Allgemein, Häufigkeit
behandlung empfehlen;Therapie, Dialyse Allgemein, Häufigkeit
